commit 8eb165f6206e40efa73a2c3119de17de469aa65b
Author: vineel-k <vineel.kodikanti@utexas.edu>
Date:   Tue Sep 17 20:24:01 2019 -0500

    Added assertions to Closes #18

commit ca1d6ababcab4240dc8135762efaf35c6edd10f5
Author: vineel-k <vineel.kodikanti@utexas.edu>
Date:   Tue Sep 17 19:52:22 2019 -0500

    Vineel Kodikanti acceptance tests

commit dde12105e5153316378671b876902ea1339fe8c8
Author: vineel-k <vineel.kodikanti@utexas.edu>
Date:   Tue Sep 17 19:37:48 2019 -0500

    created acceptance tests and places inputs in RunCollatz.in and output in RunCollatz.out

commit e1bfa6e68e6506f7cb990e64df4b18404122f6e9
Author: vineel-k <vineel.kodikanti@utexas.edu>
Date:   Tue Sep 17 18:38:01 2019 -0500

    coverage ran on TestCollatz.py gives 98% Closes #17

commit 86702bbdb110077be6643a4bae16d460c7faea86
Author: vineel-k <vineel.kodikanti@utexas.edu>
Date:   Tue Sep 17 18:18:29 2019 -0500

    implemented meta cache of max cycle lengths Closes #5

commit fee6a8877a892e519234f577db81e776c1779b9a
Author: vineel-k <vineel.kodikanti@utexas.edu>
Date:   Tue Sep 17 18:02:45 2019 -0500

    implemented eager caching of evens and even multiples of prime numers Closes #4

commit b52a33743e9d72c4cacd649d2b074f78cf1263fd
Author: vineel-k <vineel.kodikanti@utexas.edu>
Date:   Tue Sep 17 17:59:41 2019 -0500

    added lazy cache Closes #3

commit 61f48ed4d8974cf49e5881f7435799a493b3404a
Author: vineel-k <vineel.kodikanti@utexas.edu>
Date:   Tue Sep 17 17:56:04 2019 -0500

    fixed bounds bug Closes #13

commit aa5f9e91b9728b0629423fb50f1151023e00d980
Author: vineel-k <vineel.kodikanti@utexas.edu>
Date:   Tue Sep 17 17:55:26 2019 -0500

    fixed bounds bug Closes #13

commit 5c1fbe855173554341c0bfc66bca37c10df4cea4
Author: vineel-k <vineel.kodikanti@utexas.edu>
Date:   Tue Sep 17 17:46:42 2019 -0500

    added unittests Closes #16

commit 038cfed87b67b1fd85b0965f81bc05805b63553d
Author: vineel-k <vineel.kodikanti@utexas.edu>
Date:   Tue Sep 17 17:16:53 2019 -0500

    Created basic implementation which passes hackerrank test cases, added optimizaton to restrict range to j//2 + 1 - j when i - j is a larger range
    Closes #15 #6 #12

commit 5646579728b271b976ed1614bea4a264e07ff5b4
Author: vineel-k <vineel.kodikanti@utexas.edu>
Date:   Tue Sep 17 16:45:16 2019 -0500

    uncommented lined in makefile, closes issue #14

commit 54990a66c49a5646c55feebdf48605cf6d71c0ee
Author: vineel-k <vineel.kodikanti@utexas.edu>
Date:   Tue Sep 17 16:38:11 2019 -0500

    graders added to repo Closes #2

commit e2f27fe1d4a94d26a1c62ab28357148579faeb69
Author: vineel-k <vineel.kodikanti@utexas.edu>
Date:   Mon Sep 16 20:39:02 2019 -0500

    ran acceptance and unit test, fixed given acceptance and unit tests, Closes #10, #11

commit 33e4e47b9c51e6eec262de2db3c51d20d2f531af
Author: vineel-k <vineel.kodikanti@utexas.edu>
Date:   Mon Sep 16 19:18:50 2019 -0500

    Second commit Closes #8, #7, #1 repo has been forked, cloned and built

commit 64c9e61334596f21172b77b4393956bdfdc4b373
Author: vineel-k <vineel.kodikanti@utexas.edu>
Date:   Mon Sep 16 18:54:41 2019 -0500

    Updated README Closes #9

commit 8613b8aca67fb0936410afd1bf20c69717e6c114
Author: Glenn Downing <downing@cs.utexas.edu>
Date:   Tue Sep 10 10:35:18 2019 -0500

    another commit

commit da2535bbfb4b590f3807484b45b6e4fc89ce696f
Author: Glenn Downing <downing@cs.utexas.edu>
Date:   Sat Sep 7 20:31:44 2019 -0500

    another commit

commit 229079870e8a4b1a6993047c90853e82b41606a3
Author: Glenn Downing <downing@cs.utexas.edu>
Date:   Tue Sep 3 18:21:57 2019 -0500

    another commit

commit 9789838e8f5b355ddf5ce7d12d6c6b389bd2a0ef
Author: Glenn Downing <downing@cs.utexas.edu>
Date:   Tue Sep 3 18:21:14 2019 -0500

    another commit

commit e86c7af499ad673bb7eddb917a3ae80175de829e
Author: Glenn Downing <downing@cs.utexas.edu>
Date:   Tue Sep 3 18:20:40 2019 -0500

    another commit

commit 078a03a634bc3a59f3a27dbc5aea8b030d87a7fa
Author: Glenn Downing <downing@cs.utexas.edu>
Date:   Tue Sep 3 18:08:59 2019 -0500

    another commit

commit e3c12f820ba7b3d7e3cb9f59d87cd87f4b486ced
Author: Glenn Downing <downing@cs.utexas.edu>
Date:   Tue Sep 3 18:07:56 2019 -0500

    another commit

commit d9c3818e9599b6e5f2034b9f5212c8cd6ae152c3
Author: Glenn Downing <downing@cs.utexas.edu>
Date:   Tue Jun 4 20:42:04 2019 -0500

    another commit

commit af9473e3fd29f79a2022b2c505dcda484793895f
Author: Glenn Downing <downing@cs.utexas.edu>
Date:   Tue Jun 4 20:35:29 2019 -0500

    first commit
